{
  "nombre": "I love my dog",
  "direccion": "Puerto Rico 1756, Malvinas Argentinas -58.73443575 -34.4677515583333",
  "hora_inicio": "08:00",
  "hora_final": "20:00",
  "descripcion": "Delivery de alimento balanceado en Pilar",
  "actividades": "Venta de alimento y bañado de perros"
}